D:\MyFiles\idea projects\k8s_task\java-app1\src\main\java\ru\ertelecom\k8s\controller\ControllerInfo.java
D:\MyFiles\idea projects\k8s_task\java-app1\src\main\java\ru\ertelecom\k8s\service\ServiceInfo.java
D:\MyFiles\idea projects\k8s_task\java-app1\src\main\java\ru\ertelecom\k8s\config\OpenApiConfig.java
D:\MyFiles\idea projects\k8s_task\java-app1\src\main\java\ru\ertelecom\k8s\Main.java
